…
``` r
# transform into a format ggplot can easily work with
# we add row names (gene names) to a column, then
# we tell pivot_longer to transform all columns but gene
longExpressionMatrix <- exprs(eset) %>% 
  as.data.frame() %>%
  rownames_to_column("gene") %>%
  pivot_longer(cols = !gene, 
               values_to = "Expression",
               names_to = "sample_id") 

longExpressionMatrix
```

    ## # A tibble: 1,758,939 × 3
    ##    gene       sample_id Expression
    ##    <chr>      <chr>          <dbl>
    ##  1 1415670_at GSM92610        7.11
    ##  2 1415670_at GSM92611        7.32
    ##  3 1415670_at GSM92612        7.42
    ##  4 1415670_at GSM92613        7.35
    ##  5 1415670_at GSM92614        7.24
    ##  6 1415670_at GSM92615        7.34
    ##  7 1415670_at GSM92616        7.38
    ##  8 1415670_at GSM92617        7.22
    ##  9 1415670_at GSM92618        7.22
    ## 10 1415670_at GSM92619        7.12
    ## # ℹ 1,758,929 more rows
…
Note that knowing how to use functions will go a long way in helping you
reduce the amount of code you need to write. It also greatly simplifies
your code base. Very much recommended!

Okay, now, let’s try using this function.

``` r
toLonger(exprs(eset))
```

    ## # A tibble: 1,758,939 × 3
    ##    gene       sample_id Expression
    ##    <chr>      <chr>          <dbl>
    ##  1 1415670_at GSM92610        7.11
    ##  2 1415670_at GSM92611        7.32
    ##  3 1415670_at GSM92612        7.42
    ##  4 1415670_at GSM92613        7.35
    ##  5 1415670_at GSM92614        7.24
    ##  6 1415670_at GSM92615        7.34
    ##  7 1415670_at GSM92616        7.38
    ##  8 1415670_at GSM92617        7.22
    ##  9 1415670_at GSM92618        7.22
    ## 10 1415670_at GSM92619        7.12
    ## # ℹ 1,758,929 more rows
…
For simplicity, we’ll join just the relevant columns of the metadata
(`sample_id`, `dev_stage`, and `genotype`) instead of all columns.

``` r
expressionDataForGene <- expressionDataForGene %>% 
  left_join(pData(eset) %>% select(sample_id, dev_stage, genotype),
            by = "sample_id")

expressionDataForGene
```

    ## # A tibble: 78 × 5
    ##    gene       sample_id Expression dev_stage genotype
    ##    <chr>      <chr>          <dbl> <fct>     <fct>   
    ##  1 1416119_at GSM92610        9.00 4_weeks   NrlKO   
    ##  2 1416119_at GSM92611       10.4  4_weeks   NrlKO   
    ##  3 1416119_at GSM92612        9.38 4_weeks   NrlKO   
    ##  4 1416119_at GSM92613        9.07 4_weeks   NrlKO   
    ##  5 1416119_at GSM92614       10.9  E16       NrlKO   
    ##  6 1416119_at GSM92615       11.0  E16       NrlKO   
    ##  7 1416119_at GSM92616        9.20 E16       NrlKO   
    ##  8 1416119_at GSM92617        9.45 P10       NrlKO   
    ##  9 1416119_at GSM92618       10.1  P10       NrlKO   
    ## 10 1416119_at GSM92619        9.55 P10       NrlKO   
    ## # ℹ 68 more rows
…
    expressionMatrix <- longExpressionMatrix <- exprs(expset) %>% 
    as.data.frame() %>%
    rownames_to_column("gene") %>%
    pivot_longer(cols = !gene, 
                 values_to = "Expression",
                 names_to = "sample_id") %>%
    left_join(pData(expset) %>% select(sample_id, dev_stage, genotype),
            by = "sample_id")
  return(expressionMatrix)
}

toLongerMeta(eset)
```

    ## # A tibble: 1,758,939 × 5
    ##    gene       sample_id Expression dev_stage genotype
    ##    <chr>      <chr>          <dbl> <fct>     <fct>   
    ##  1 1415670_at GSM92610        7.11 4_weeks   NrlKO   
    ##  2 1415670_at GSM92611        7.32 4_weeks   NrlKO   
    ##  3 1415670_at GSM92612        7.42 4_weeks   NrlKO   
    ##  4 1415670_at GSM92613        7.35 4_weeks   NrlKO   
    ##  5 1415670_at GSM92614        7.24 E16       NrlKO   
    ##  6 1415670_at GSM92615        7.34 E16       NrlKO   
    ##  7 1415670_at GSM92616        7.38 E16       NrlKO   
    ##  8 1415670_at GSM92617        7.22 P10       NrlKO   
    ##  9 1415670_at GSM92618        7.22 P10       NrlKO   
    ## 10 1415670_at GSM92619        7.12 P10       NrlKO   
    ## # ℹ 1,758,929 more rows
…
Remember the `toLongerMeta()` that we wrote? Scroll up if you forgot. We
can reuse it here.

``` r
topGenes <- rownames(topTenGenes)[1:6]

topGenesExpressionData <- toLongerMeta(eset) %>%
  filter(genotype == "WT") %>%
  filter(gene %in% topGenes) 

topGenesExpressionData # reminder of formatted expression data looks like - for easy graphing
```

    ## # A tibble: 120 × 5
    ##    gene       sample_id Expression dev_stage genotype
    ##    <chr>      <chr>          <dbl> <fct>     <fct>   
    ##  1 1416041_at GSM92629       13.1  4_weeks   WT      
    ##  2 1416041_at GSM92630       13.3  4_weeks   WT      
    ##  3 1416041_at GSM92631       13.5  4_weeks   WT      
    ##  4 1416041_at GSM92632       13.3  4_weeks   WT      
    ##  5 1416041_at GSM92633        7.74 E16       WT      
    ##  6 1416041_at GSM92634        8.48 E16       WT      
    ##  7 1416041_at GSM92635        8.15 E16       WT      
    ##  8 1416041_at GSM92636        8.29 E16       WT      
    ##  9 1416041_at GSM92637        8.13 P10       WT      
    ## 10 1416041_at GSM92638        8.16 P10       WT      
    ## # ℹ 110 more rows
…
